Suite/Test/Step Name,Browser,Description,Tag,Start time,End time,Duration,Status
AdminLoginSuite,Chrome 73.0.3683.103,,,2019-05-04 13:56:12,2019-05-04 13:56:24,11.575s,PASSED
,,,,,,,
Test Cases/AdminLoggingIn,Chrome 73.0.3683.103,,,2019-05-04 13:56:13,2019-05-04 13:56:24,11.131s,PASSED
"openBrowser("""")",Chrome 73.0.3683.103,,,2019-05-04 13:56:13,2019-05-04 13:56:16,2.943s,PASSED
"navigateToUrl(""http://3.82.158.88:8085"")",Chrome 73.0.3683.103,,,2019-05-04 13:56:16,2019-05-04 13:56:22,5.730s,PASSED
"setText(findTestObject(""Page_ProjectBackend/input_username""), username)",Chrome 73.0.3683.103,,,2019-05-04 13:56:22,2019-05-04 13:56:22,0.311s,PASSED
"setText(findTestObject(""Page_ProjectBackend/input_password""), password)",Chrome 73.0.3683.103,,,2019-05-04 13:56:22,2019-05-04 13:56:22,0.150s,PASSED
"click(findTestObject(""Page_ProjectBackend/button_Login""))",Chrome 73.0.3683.103,,,2019-05-04 13:56:22,2019-05-04 13:56:23,0.147s,PASSED
"verifyElementText(findTestObject(""Page_ProjectBackend/a_Products""), products)",Chrome 73.0.3683.103,,,2019-05-04 13:56:23,2019-05-04 13:56:24,1.111s,PASSED
"verifyElementText(findTestObject(""Page_ProjectBackend/a_TotalTransaction""), totaltransaction)",Chrome 73.0.3683.103,,,2019-05-04 13:56:24,2019-05-04 13:56:24,0.066s,PASSED
closeBrowser(),Chrome 73.0.3683.103,,,2019-05-04 13:56:24,2019-05-04 13:56:24,0.159s,PASSED
