Suite/Test/Step Name,Browser,Description,Tag,Start time,End time,Duration,Status
AdminLoginSuite,Chrome 73.0.3683.103,,,2019-05-04 13:24:44,2019-05-04 13:25:50,1m - 6.098s,FAILED
,,,,,,,
Test Cases/AdminLoggingIn,Chrome 73.0.3683.103,,,2019-05-04 13:24:45,2019-05-04 13:25:50,1m - 5.493s,FAILED
"openBrowser("""")",Chrome 73.0.3683.103,,,2019-05-04 13:24:45,2019-05-04 13:24:49,3.805s,PASSED
"navigateToUrl(""http://3.82.158.88:8085"")",Chrome 73.0.3683.103,,,2019-05-04 13:24:49,2019-05-04 13:25:18,29.174s,PASSED
"setText(findTestObject(""Page_ProjectBackend/input_username""), username)",Chrome 73.0.3683.103,,,2019-05-04 13:25:18,2019-05-04 13:25:50,31.780s,FAILED
